The Octobeast • octomod
…
Arms of the octomod

The idea that each arm is a collection of hypothesis is important, as usually modeling involves testing several related hypotheses. The arm() function is nice because it allows a modular way to specify mulitple hypotheses.

For example, we could guess that in iris, the Petal.Length is likely dependent on both Sepal.Length and Sepal.Width. We could also guess that Sepal.Length and Sepal.Width may have the same distribution. This suggests two tests:

Paired t-test to compare t-distribution of Sepal.Length and Sepal.Width

Linear regression with Petal.Length as outcome, with Sepal.Length, Sepal.Width as predictors.

Linear regression with Petal.Width as outcome, with Sepal.Length and Sepal.Width as predictors and Species as a fixed exposure

# The data set that we will use
tibble::tibble(iris)
#> # A tibble: 150 x 5
#>    Sepal.Length Sepal.Width Petal.Length Petal.Width Species
#>           <dbl>       <dbl>        <dbl>       <dbl> <fct>  
#>  1          5.1         3.5          1.4         0.2 setosa 
#>  2          4.9         3            1.4         0.2 setosa 
#>  3          4.7         3.2          1.3         0.2 setosa 
#>  4          4.6         3.1          1.5         0.2 setosa 
#>  5          5           3.6          1.4         0.2 setosa 
#>  6          5.4         3.9          1.7         0.4 setosa 
#>  7          4.6         3.4          1.4         0.3 setosa 
#>  8          5           3.4          1.5         0.2 setosa 
#>  9          4.4         2.9          1.4         0.2 setosa 
#> 10          4.9         3.1          1.5         0.1 setosa 
#> # … with 140 more rows
…
